%YAML 1.1
%TAG !u! tag:unity3d.com,2011:
--- !u!114 &11400000
MonoBehaviour:
  m_ObjectHideFlags: 0
  m_PrefabParentObject: {fileID: 0}
  m_PrefabInternal: {fileID: 0}
  m_GameObject: {fileID: 0}
  m_Enabled: 1
  m_EditorHideFlags: 0
  m_Script: {fileID: 11500000, guid: 7a7863d709620344686688cec93c36e3, type: 3}
  m_Name: BoxWall
  m_EditorClassIdentifier: 
  Name: Box Wall
  IsStatic: 1
  Health: 2
