%YAML 1.1
%TAG !u! tag:unity3d.com,2011:
--- !u!114 &11400000
MonoBehaviour:
  m_ObjectHideFlags: 0
  m_PrefabParentObject: {fileID: 0}
  m_PrefabInternal: {fileID: 0}
  m_GameObject: {fileID: 0}
  m_Enabled: 1
  m_EditorHideFlags: 0
  m_Script: {fileID: 11500000, guid: e6b74e3055aeda547a2f13425dfc0756, type: 3}
  m_Name: Dif_Enemy1
  m_EditorClassIdentifier: 
  Speed: 3
  MultiplyDamage: 4
  Health: 4
